palmer_penguins
…
In general for all species males tend to have larger mass (i.e., they are heavier) than female penguins, and Gentoo penguins are the larger species of the three.

Principal components analysis (PCA)

# select numerical variables only
data_num <- select_if(penguins_raw, is.numeric)             # Subset numeric columns with dplyr

# remove sample_number column
data_num = select(data_num, -c(sample_number))

data_num

# A tibble: 344 × 6
   culmen_length_mm culmen_depth_mm flipper_length_mm body_mas…¹ delta…² delta…³
              <dbl>           <dbl>             <dbl>      <dbl>   <dbl>   <dbl>
 1             39.1            18.7               181       3750   NA       NA  
 2             39.5            17.4               186       3800    8.95   -24.7
 3             40.3            18                 195       3250    8.37   -25.3
 4             NA              NA                  NA         NA   NA       NA  
 5             36.7            19.3               193       3450    8.77   -25.3
 6             39.3            20.6               190       3650    8.66   -25.3
 7             38.9            17.8               181       3625    9.19   -25.2
 8             39.2            19.6               195       4675    9.46   -24.9
 9             34.1            18.1               193       3475   NA       NA  
10             42              20.2               190       4250    9.13   -25.1
# … with 334 more rows, and abbreviated variable names ¹​body_mass_g,
#   ²​delta_15_n_o_oo, ³​delta_13_c_o_oo
…
